cpu_top_tb.vcd
$version Generated by VerilatedVcd $end
$timescale 1ps $end
 $scope module TOP $end
  $scope module tb_cpu $end
   $var wire 1 ^! clk $end
   $var wire 5 _! reg_obs_sel [4:0] $end
   $var wire 32 `! reg_obs_data [31:0] $end
   $scope module uut $end
    $var wire 1 ^! clk $end
    $var wire 5 _! reg_obs_sel [4:0] $end
    $var wire 32 `! reg_obs_data [31:0] $end
    $var wire 32 F pc [31:0] $end
    $var wire 32 3! pc_4 [31:0] $end
    $var wire 32 4! pc_mux [31:0] $end
    $var wire 1 5! pc_sel $end
    $var wire 32 6! alu_out [31:0] $end
    $var wire 32 7! inst [31:0] $end
    $var wire 2 8! imm_sel [1:0] $end
    $var wire 32 9! immediate_sign_ex [31:0] $end
    $var wire 5 G wb_reg_dest [4:0] $end
    $var wire 32 :! wb_data [31:0] $end
    $var wire 1 H wb_reg_wen $end
    $var wire 32 I pc_mux_ex [31:0] $end
    $var wire 1 ;! reg_wen $end
    $var wire 32 <! data1 [31:0] $end
    $var wire 32 =! data2 [31:0] $end
    $var wire 32 >! source_data [31:0] $end
    $var wire 1 ?! mux_1_sel $end
    $var wire 1 @! mux_2_sel $end
    $var wire 1 A! mux_3_sel $end
    $var wire 4 B! alu_sel [3:0] $end
    $var wire 32 C! mux1_out [31:0] $end
    $var wire 32 D! mux2_out [31:0] $end
    $var wire 32 J mux3_out [31:0] $end
    $var wire 32 K pc_mux_ex_four [31:0] $end
    $var wire 1 E! alu_over $end
    $var wire 1 F! alu_under $end
    $var wire 32 G! ccr_d [31:0] $end
    $var wire 32 L ccr_q [31:0] $end
    $var wire 2 H! ccr_type [1:0] $end
    $var wire 4 I! ccr_op [3:0] $end
    $var wire 1 J! ccr_br $end
    $var wire 32 M wb_alu_out [31:0] $end
    $var wire 32 K! dmem_data [31:0] $end
    $var wire 1 N wb_sel_q $end
    $var wire 1 L! wb_sel_d $end
    $var wire 1 M! dmem_wen $end
    $scope module ADDER_1 $end
     $var wire 32 4! in1 [31:0] $end
     $var wire 32 a! in2 [31:0] $end
     $var wire 32 3! out [31:0] $end
    $upscope $end
    $scope module ADDER_2 $end
     $var wire 32 I in1 [31:0] $end
     $var wire 32 a! in2 [31:0] $end
     $var wire 32 K out [31:0] $end
    $upscope $end
    $scope module ALU $end
     $var wire 32 C! input1 [31:0] $end
     $var wire 32 D! input2 [31:0] $end
     $var wire 4 B! alu_sel [3:0] $end
     $var wire 32 6! out [31:0] $end
     $var wire 1 E! over $end
     $var wire 1 F! under $end
     $var wire 32 N! a [31:0] $end
     $var wire 32 O! b [31:0] $end
     $var wire 32 P! sum [31:0] $end
     $var wire 32 Q! diff [31:0] $end
     $var wire 32 R! x [31:0] $end
     $var wire 32 S! y [31:0] $end
     $var wire 64 T! mult_result [63:0] $end
     $var wire 32 V! carry [31:0] $end
    $upscope $end
    $scope module ALU_PIPE_REG $end
     $var wire 32 J D [31:0] $end
     $var wire 1 ^! clk $end
     $var wire 32 M Q [31:0] $end
     $var wire 32 M data [31:0] $end
    $upscope $end
    $scope module CCR $end
     $var wire 32 G! D [31:0] $end
     $var wire 1 ^! clk $end
     $var wire 32 L Q [31:0] $end
     $var wire 32 L data [31:0] $end
    $upscope $end
    $scope module CCR_LOGIC $end
     $var wire 1 E! over $end
     $var wire 1 F! under $end
     $var wire 32 6! alu_in [31:0] $end
     $var wire 32 L ccr_in [31:0] $end
     $var wire 2 H! type_in [1:0] $end
     $var wire 4 I! op_in [3:0] $end
     $var wire 1 J! br_out $end
     $var wire 32 G! ccr_out [31:0] $end
    $upscope $end
    $scope module CONTROL $end
     $var wire 2 H! type_in [1:0] $end
     $var wire 4 I! op_in [3:0] $end
     $var wire 1 J! br_in $end
     $var wire 1 5! pc_sel_out $end
     $var wire 2 8! imm_sel_out [1:0] $end
     $var wire 1 ;! reg_wen_out $end
     $var wire 1 ?! mux_1_sel_out $end
     $var wire 1 @! mux_2_sel_out $end
     $var wire 4 B! alu_sel_out [3:0] $end
     $var wire 1 A! mux_3_sel_out $end
     $var wire 2 H! type_out [1:0] $end
     $var wire 4 I! op_out [3:0] $end
     $var wire 1 M! dmem_wen_out $end
     $var wire 1 L! wb_sel_out $end
     $var wire 19 W! output_vector [18:0] $end
    $upscope $end
    $scope module DMEM $end
     $var wire 1 ^! clk $end
     $var wire 1 M! write_en $end
     $var wire 32 6! addr [31:0] $end
     $var wire 32 >! write_data [31:0] $end
     $var wire 32 K! read_data [31:0] $end
     $var wire 8 O mem[0] [7:0] $end
     $var wire 8 P mem[1] [7:0] $end
     $var wire 8 Q mem[2] [7:0] $end
     $var wire 8 R mem[3] [7:0] $end
     $var wire 8 S mem[4] [7:0] $end
     $var wire 8 T mem[5] [7:0] $end
     $var wire 8 U mem[6] [7:0] $end
     $var wire 8 V mem[7] [7:0] $end
     $var wire 8 W mem[8] [7:0] $end
     $var wire 8 X mem[9] [7:0] $end
     $var wire 8 Y mem[10] [7:0] $end
     $var wire 8 Z mem[11] [7:0] $end
     $var wire 8 [ mem[12] [7:0] $end
     $var wire 8 \ mem[13] [7:0] $end
     $var wire 8 ] mem[14] [7:0] $end
     $var wire 8 ^ mem[15] [7:0] $end
     $var wire 8 _ mem[16] [7:0] $end
     $var wire 8 ` mem[17] [7:0] $end
     $var wire 8 a mem[18] [7:0] $end
     $var wire 8 b mem[19] [7:0] $end
     $var wire 8 c mem[20] [7:0] $end
     $var wire 8 d mem[21] [7:0] $end
     $var wire 8 e mem[22] [7:0] $end
     $var wire 8 f mem[23] [7:0] $end
     $var wire 8 g mem[24] [7:0] $end
     $var wire 8 h mem[25] [7:0] $end
     $var wire 8 i mem[26] [7:0] $end
     $var wire 8 j mem[27] [7:0] $end
     $var wire 8 k mem[28] [7:0] $end
     $var wire 8 l mem[29] [7:0] $end
     $var wire 8 m mem[30] [7:0] $end
     $var wire 8 n mem[31] [7:0] $end
     $var wire 32 b! LAST_VALID_ADDR [31:0] $end
     $scope module unnamedblk1 $end
      $var wire 32 # fd [31:0] $end
      $var wire 32 $ addr [31:0] $end
      $var wire 32 % word_data [31:0] $end
     $upscope $end
    $upscope $end
    $scope module IMEM $end
     $var wire 1 ^! clk $end
     $var wire 1 c! write_en $end
     $var wire 32 4! addr [31:0] $end
     $var wire 32 d! write_data [31:0] $end
     $var wire 32 7! read_data [31:0] $end
     $var wire 8 & mem[0] [7:0] $end
     $var wire 8 ' mem[1] [7:0] $end
     $var wire 8 ( mem[2] [7:0] $end
     $var wire 8 ) mem[3] [7:0] $end
     $var wire 8 * mem[4] [7:0] $end
     $var wire 8 + mem[5] [7:0] $end
     $var wire 8 , mem[6] [7:0] $end
     $var wire 8 - mem[7] [7:0] $end
     $var wire 8 . mem[8] [7:0] $end
     $var wire 8 / mem[9] [7:0] $end
     $var wire 8 0 mem[10] [7:0] $end
     $var wire 8 1 mem[11] [7:0] $end
     $var wire 8 2 mem[12] [7:0] $end
     $var wire 8 3 mem[13] [7:0] $end
     $var wire 8 4 mem[14] [7:0] $end
     $var wire 8 5 mem[15] [7:0] $end
     $var wire 8 6 mem[16] [7:0] $end
     $var wire 8 7 mem[17] [7:0] $end
     $var wire 8 8 mem[18] [7:0] $end
     $var wire 8 9 mem[19] [7:0] $end
     $var wire 8 : mem[20] [7:0] $end
     $var wire 8 ; mem[21] [7:0] $end
     $var wire 8 < mem[22] [7:0] $end
     $var wire 8 = mem[23] [7:0] $end
     $var wire 8 > mem[24] [7:0] $end
     $var wire 8 ? mem[25] [7:0] $end
     $var wire 8 @ mem[26] [7:0] $end
     $var wire 8 A mem[27] [7:0] $end
     $var wire 8 B mem[28] [7:0] $end
     $var wire 8 C mem[29] [7:0] $end
     $var wire 8 D mem[30] [7:0] $end
     $var wire 8 E mem[31] [7:0] $end
     $var wire 32 b! LAST_VALID_ADDR [31:0] $end
    $upscope $end
    $scope module IMM_GEN $end
     $var wire 5 X! a [4:0] $end
     $var wire 5 Y! b [4:0] $end
     $var wire 11 Z! c [10:0] $end
     $var wire 2 8! imm_sel_in [1:0] $end
     $var wire 32 9! out [31:0] $end
     $var wire 16 [! cb [15:0] $end
     $var wire 21 \! cba [20:0] $end
    $upscope $end
    $scope module INST_PIPE_REG $end
     $var wire 5 ]! D [4:0] $end
     $var wire 1 ^! clk $end
     $var wire 5 G Q [4:0] $end
     $var wire 5 G data [4:0] $end
    $upscope $end
    $scope module MUX_1 $end
     $var wire 32 <! in0 [31:0] $end
     $var wire 32 I in1 [31:0] $end
     $var wire 1 ?! sel $end
     $var wire 32 C! out [31:0] $end
    $upscope $end
    $scope module MUX_2 $end
     $var wire 32 9! in0 [31:0] $end
     $var wire 32 =! in1 [31:0] $end
     $var wire 1 @! sel $end
     $var wire 32 D! out [31:0] $end
    $upscope $end
    $scope module MUX_3 $end
     $var wire 32 6! in0 [31:0] $end
     $var wire 32 K in1 [31:0] $end
     $var wire 1 A! sel $end
     $var wire 32 J out [31:0] $end
    $upscope $end
    $scope module MUX_PC $end
     $var wire 32 F in0 [31:0] $end
     $var wire 32 6! in1 [31:0] $end
     $var wire 1 5! sel $end
     $var wire 32 4! out [31:0] $end
    $upscope $end
    $scope module MUX_WB $end
     $var wire 32 K! in0 [31:0] $end
     $var wire 32 M in1 [31:0] $end
     $var wire 1 N sel $end
     $var wire 32 :! out [31:0] $end
    $upscope $end
    $scope module PC $end
     $var wire 32 3! D [31:0] $end
     $var wire 1 ^! clk $end
     $var wire 32 F Q [31:0] $end
     $var wire 32 F data [31:0] $end
    $upscope $end
    $scope module PC_PIPE_REG $end
     $var wire 32 4! D [31:0] $end
     $var wire 1 ^! clk $end
     $var wire 32 I Q [31:0] $end
     $var wire 32 I data [31:0] $end
    $upscope $end
    $scope module REGFILE $end
     $var wire 5 X! reg1_in [4:0] $end
     $var wire 5 Y! reg2_in [4:0] $end
     $var wire 5 ]! reg_source_in [4:0] $end
     $var wire 5 G reg_dest_in [4:0] $end
     $var wire 32 :! data_in [31:0] $end
     $var wire 1 H reg_wen_in $end
     $var wire 32 `! reg_obs_data_out [31:0] $end
     $var wire 5 _! reg_obs_sel_in [4:0] $end
     $var wire 32 <! data1_out [31:0] $end
     $var wire 32 =! data2_out [31:0] $end
     $var wire 32 >! source_data_out [31:0] $end
     $var wire 32 o R1_out [31:0] $end
     $var wire 32 p R2_out [31:0] $end
     $var wire 32 q R3_out [31:0] $end
     $var wire 32 r R4_out [31:0] $end
     $var wire 32 s R5_out [31:0] $end
     $var wire 32 t R6_out [31:0] $end
     $var wire 32 u R7_out [31:0] $end
     $var wire 32 v R8_out [31:0] $end
     $var wire 32 w R9_out [31:0] $end
     $var wire 32 x R10_out [31:0] $end
     $var wire 32 y R11_out [31:0] $end
     $var wire 32 z R12_out [31:0] $end
     $var wire 32 { R13_out [31:0] $end
     $var wire 32 | R14_out [31:0] $end
     $var wire 32 } R15_out [31:0] $end
     $var wire 32 ~ R16_out [31:0] $end
     $var wire 32 !! SP_out [31:0] $end
     $var wire 1 "! R1_EN $end
     $var wire 1 #! R2_EN $end
     $var wire 1 $! R3_EN $end
     $var wire 1 %! R4_EN $end
     $var wire 1 &! R5_EN $end
     $var wire 1 '! R6_EN $end
     $var wire 1 (! R7_EN $end
     $var wire 1 )! R8_EN $end
     $var wire 1 *! R9_EN $end
     $var wire 1 +! R10_EN $end
     $var wire 1 ,! R11_EN $end
     $var wire 1 -! R12_EN $end
     $var wire 1 .! R13_EN $end
     $var wire 1 /! R14_EN $end
     $var wire 1 0! R15_EN $end
     $var wire 1 1! R16_EN $end
     $var wire 1 2! SP_EN $end
     $scope module R1 $end
      $var wire 32 :! D [31:0] $end
      $var wire 1 "! en $end
      $var wire 32 o Q [31:0] $end
     $upscope $end
     $scope module R10 $end
      $var wire 32 :! D [31:0] $end
      $var wire 1 +! en $end
      $var wire 32 x Q [31:0] $end
     $upscope $end
     $scope module R11 $end
      $var wire 32 :! D [31:0] $end
      $var wire 1 ,! en $end
      $var wire 32 y Q [31:0] $end
     $upscope $end
     $scope module R12 $end
      $var wire 32 :! D [31:0] $end
      $var wire 1 -! en $end
      $var wire 32 z Q [31:0] $end
     $upscope $end
     $scope module R13 $end
      $var wire 32 :! D [31:0] $end
      $var wire 1 .! en $end
      $var wire 32 { Q [31:0] $end
     $upscope $end
     $scope module R14 $end
      $var wire 32 :! D [31:0] $end
      $var wire 1 /! en $end
      $var wire 32 | Q [31:0] $end
     $upscope $end
     $scope module R15 $end
      $var wire 32 :! D [31:0] $end
      $var wire 1 0! en $end
      $var wire 32 } Q [31:0] $end
     $upscope $end
     $scope module R16 $end
      $var wire 32 :! D [31:0] $end
      $var wire 1 1! en $end
      $var wire 32 ~ Q [31:0] $end
     $upscope $end
     $scope module R2 $end
      $var wire 32 :! D [31:0] $end
      $var wire 1 #! en $end
      $var wire 32 p Q [31:0] $end
     $upscope $end
     $scope module R3 $end
      $var wire 32 :! D [31:0] $end
      $var wire 1 $! en $end
      $var wire 32 q Q [31:0] $end
     $upscope $end
     $scope module R4 $end
      $var wire 32 :! D [31:0] $end
      $var wire 1 %! en $end
      $var wire 32 r Q [31:0] $end
     $upscope $end
     $scope module R5 $end
      $var wire 32 :! D [31:0] $end
      $var wire 1 &! en $end
      $var wire 32 s Q [31:0] $end
     $upscope $end
     $scope module R6 $end
      $var wire 32 :! D [31:0] $end
      $var wire 1 '! en $end
      $var wire 32 t Q [31:0] $end
     $upscope $end
     $scope module R7 $end
      $var wire 32 :! D [31:0] $end
      $var wire 1 (! en $end
      $var wire 32 u Q [31:0] $end
     $upscope $end
     $scope module R8 $end
      $var wire 32 :! D [31:0] $end
      $var wire 1 )! en $end
      $var wire 32 v Q [31:0] $end
     $upscope $end
     $scope module R9 $end
      $var wire 32 :! D [31:0] $end
      $var wire 1 *! en $end
      $var wire 32 w Q [31:0] $end
     $upscope $end
     $scope module SP $end
      $var wire 32 :! D [31:0] $end
      $var wire 1 2! en $end
      $var wire 32 !! Q [31:0] $end
     $upscope $end
    $upscope $end
    $scope module WB_PIPE_REG $end
     $var wire 1 L! D $end
     $var wire 1 ^! clk $end
     $var wire 1 N Q $end
     $var wire 1 N data $end
    $upscope $end
    $scope module WEN_PIPE_REG $end
     $var wire 1 ;! D $end
     $var wire 1 ^! clk $end
     $var wire 1 H Q $end
     $var wire 1 H data $end
    $upscope $end
   $upscope $end
  $upscope $end
 $upscope $end
$enddefinitions $end


#0
b00000000000000000000000000000000 #
b00000000000000000000000000000000 $
b00000000000000000000000000000000 %
b01010000 &
b00000000 '
b00000001 (
b00000000 )
b10010000 *
b00000000 +
b00000010 ,
b00000000 -
b01100101 .
b00000000 /
b00000000 0
b00000000 1
b10100101 2
b00000000 3
b00000100 4
b00000000 5
b00000000 6
b00000000 7
b00000000 8
b00000000 9
b00000000 :
b00000000 ;
b00000000 <
b00000000 =
b00000000 >
b00000000 ?
b00000000 @
b00000000 A
b00000000 B
b00000000 C
b00000000 D
b00000000 E
b00000000000000000000000000000000 F
b00000 G
0H
b00000000000000000000000000000000 I
b00000000000000000000000000000000 J
b00000000000000000000000000000100 K
b00000000000000000000000000000000 L
b00000000000000000000000000000000 M
0N
b11111111 O
b11111111 P
b11111111 Q
b11111111 R
b11111111 S
b11111111 T
b11111111 U
b11111111 V
b11111111 W
b11111111 X
b11111111 Y
b11111111 Z
b11111111 [
b11111111 \
b11111111 ]
b11111111 ^
b11111111 _
b11111111 `
b11111111 a
b11111111 b
b11111111 c
b11111111 d
b11111111 e
b11111111 f
b11111111 g
b11111111 h
b11111111 i
b11111111 j
b11111111 k
b11111111 l
b11111111 m
b00000000 n
b00000000000000000000000000000000 o
b00000000000000000000000000000000 p
b00000000000000000000000000000000 q
b00000000000000000000000000000000 r
b00000000000000000000000000000000 s
b00000000000000000000000000000000 t
b00000000000000000000000000000000 u
b00000000000000000000000000000000 v
b00000000000000000000000000000000 w
b00000000000000000000000000000000 x
b00000000000000000000000000000000 y
b00000000000000000000000000000000 z
b00000000000000000000000000000000 {
b00000000000000000000000000000000 |
b00000000000000000000000000000000 }
b00000000000000000000000000000000 ~
b00000000000000000000000000000000 !!
0"!
0#!
0$!
0%!
0&!
0'!
0(!
0)!
0*!
0+!
0,!
0-!
0.!
0/!
00!
01!
02!
b00000000000000000000000000000100 3!
b00000000000000000000000000000000 4!
05!
b00000000000000000000000000000000 6!
b00000000000000000000000000000000 7!
b00 8!
b00000000000000000000000000000000 9!
b00000000000000000000000000000000 :!
1;!
b00000000000000000000000000000000 <!
b00000000000000000000000000000000 =!
b00000000000000000000000000000000 >!
0?!
1@!
0A!
b0000 B!
b00000000000000000000000000000000 C!
b00000000000000000000000000000000 D!
0E!
0F!
b00000000000000000000000000000001 G!
b00 H!
b0000 I!
0J!
b00000000000000000000000000000000 K!
1L!
0M!
b00000000000000000000000000000000 N!
b00000000000000000000000000000000 O!
b00000000000000000000000000000000 P!
b00000000000000000000000000000000 Q!
b00000000000000000000000000000000 R!
b00000000000000000000000000000000 S!
b0000000000000000000000000000000000000000000000000000000000000000 T!
b00000000000000000000000000000000 V!
b0001010000000000001 W!
b00000 X!
b00000 Y!
b00000000000 Z!
b0000000000000000 [!
b000000000000000000000 \!
b00000 ]!
0^!
b00000 _!
b00000000000000000000000000000000 `!
b00000000000000000000000000000100 a!
b00000000000000000000000000011100 b!
0c!
b00000000000000000000000000000000 d!
#5000
b00000000000000000000000000000100 F
1H
b00000000000000000000000000000001 J
b00000000000000000000000000000001 L
1N
b00000000000000000000000000001000 3!
b00000000000000000000000000000100 4!
b00000000000000000000000000000001 6!
b00000000000000010000000001010000 7!
b10 8!
b00000000000000000000000000000001 9!
0@!
b00000000000000000000000000000001 D!
b00000000000000000000000000000000 G!
b01 H!
b11111111111111111111111111111111 K!
b00000000000000000000000000000001 O!
b00000000000000000000000000000001 P!
b00000000000000000000000000000001 R!
b0101000000001000001 W!
b00001 Y!
b0000000000000001 [!
b000000000000000100000 \!
b00001 ]!
1^!
#10000
0^!
#15000
b00000000000000000000000000001000 F
b00001 G
b00000000000000000000000000000100 I
b00000000000000000000000000000010 J
b00000000000000000000000000001000 K
b00000000000000000000000000000000 L
b00000000000000000000000000000001 M
b00000000000000000000000000000001 o
1"!
b00000000000000000000000000001100 3!
b00000000000000000000000000001000 4!
b00000000000000000000000000000010 6!
b00000000000000100000000010010000 7!
b00000000000000000000000000000010 9!
b00000000000000000000000000000001 :!
b00000000000000000000000000000010 D!
b00000000000000000000000000000010 O!
b00000000000000000000000000000010 P!
b00000000000000000000000000000010 R!
b00010 Y!
b0000000000000010 [!
b000000000000001000000 \!
b00010 ]!
1^!
#20000
0^!
#25000
b00000000000000000000000000001100 F
b00010 G
b00000000000000000000000000001000 I
b00000000000000000000000000000000 J
b00000000000000000000000000001100 K
b00000000000000000000000000000010 M
b00000000000000000000000000000010 p
0"!
1#!
b00000000000000000000000000010000 3!
b00000000000000000000000000001100 4!
b00000000000000000000000000000000 6!
b00000000000000000000000001100101 7!
b00000000000000000000000000000000 9!
b00000000000000000000000000000010 :!
0;!
b00000000000000000000000000000001 >!
b00000000000000000000000000000000 D!
b00000000000000000000000000000001 G!
b10 H!
b0101 I!
0L!
1M!
b00000000000000000000000000000000 O!
b00000000000000000000000000000000 P!
b00000000000000000000000000000000 R!
b0100000000010010110 W!
b00000 Y!
b0000000000000000 [!
b000000000000000000000 \!
b00001 ]!
1^!
#30000
0^!
#35000
b00000000000000000000000000010000 F
b00001 G
0H
b00000000000000000000000000001100 I
b00000000000000000000000000000100 J
b00000000000000000000000000010000 K
b00000000000000000000000000000001 L
b00000000000000000000000000000000 M
0N
b00000001 O
b00000000 P
b00000000 Q
b00000000 R
0#!
b00000000000000000000000000010100 3!
b00000000000000000000000000010000 4!
b00000000000000000000000000000100 6!
b00000000000001000000000010100101 7!
b00000000000000000000000000000100 9!
b11111111111111111111111111111111 :!
b00000000000000000000000000000010 >!
b00000000000000000000000000000100 D!
b00000000000000000000000000000000 G!
b00000000000000000000000000000100 O!
b00000000000000000000000000000100 P!
b00000000000000000000000000000100 R!
b00100 Y!
b0000000000000100 [!
b000000000000010000000 \!
b00010 ]!
1^!
#40000
0^!
#45000
b00000000000000000000000000010100 F
b00010 G
b00000000000000000000000000010000 I
b00000000000000000000000000000000 J
b00000000000000000000000000010100 K
b00000000000000000000000000000000 L
b00000000000000000000000000000100 M
b00000010 S
b00000000 T
b00000000 U
b00000000 V
b00000000000000000000000000011000 3!
b00000000000000000000000000010100 4!
b00000000000000000000000000000000 6!
b00000000000000000000000000000000 7!
b00 8!
b00000000000000000000000000000000 9!
1;!
b00000000000000000000000000000000 >!
1@!
b00000000000000000000000000000000 D!
b00000000000000000000000000000001 G!
b00 H!
b0000 I!
1L!
0M!
b00000000000000000000000000000000 O!
b00000000000000000000000000000000 P!
b00000000000000000000000000000000 R!
b0001010000000000001 W!
b00000 Y!
b0000000000000000 [!
b000000000000000000000 \!
b00000 ]!
1^!
#50000
0^!
#55000
b00000000000000000000000000011000 F
b00000 G
1H
b00000000000000000000000000010100 I
b00000000000000000000000000011000 K
b00000000000000000000000000000001 L
b00000000000000000000000000000000 M
1N
b00000000000000000000000000011100 3!
b00000000000000000000000000011000 4!
b00000000000000000000000000000000 :!
b00000000000000000000000000000001 K!
1^!
#60000
0^!
#65000
b00000000000000000000000000011100 F
b00000000000000000000000000011000 I
b00000000000000000000000000011100 K
b00000000000000000000000000100000 3!
b00000000000000000000000000011100 4!
1^!
#70000
0^!
#75000
b00000000000000000000000000100000 F
b00000000000000000000000000011100 I
b00000000000000000000000000100000 K
b00000000000000000000000000100100 3!
b00000000000000000000000000100000 4!
1^!
#80000
0^!
#85000
b00000000000000000000000000100100 F
b00000000000000000000000000100000 I
b11011110101011011011111011101111 J
b00000000000000000000000000100100 K
b00000000000000000000000000101000 3!
b00000000000000000000000000100100 4!
b11011110101011011011111011101111 6!
b11111111111111111111111111111111 7!
0;!
b11011110101011011011111011101111 <!
b11011110101011011011111011101111 =!
b11011110101011011011111011101111 >!
0@!
b11011110101011011011111011101111 C!
b00000000000000000000000000000000 G!
b11 H!
b1111 I!
0L!
b11011110101011011011111011101111 N!
b11011110101011011011111011101111 P!
b11011110101011011011111011101111 R!
b0000000000000000000 W!
b11111 X!
b11111 Y!
b11111111111 Z!
b1111111111111111 [!
b111111111111111111111 \!
b11111 ]!
1^!
#90000
0^!
#95000
b00000000000000000000000000101000 F
b11111 G
0H
b00000000000000000000000000100100 I
b00000000000000000000000000101000 K
b00000000000000000000000000000000 L
b11011110101011011011111011101111 M
0N
b00000000000000000000000000101100 3!
b00000000000000000000000000101000 4!
b11111111111111111111111111111111 :!
b11111111111111111111111111111111 K!
1^!
#100000
0^!
#105000
b00000000000000000000000000101100 F
b00000000000000000000000000101000 I
b00000000000000000000000000101100 K
b00000000000000000000000000110000 3!
b00000000000000000000000000101100 4!
1^!
#110000
0^!
#115000
b00000000000000000000000000110000 F
b00000000000000000000000000101100 I
b00000000000000000000000000110000 K
b00000000000000000000000000110100 3!
b00000000000000000000000000110000 4!
1^!
#120000
0^!
#125000
b00000000000000000000000000110100 F
b00000000000000000000000000110000 I
b00000000000000000000000000110100 K
b00000000000000000000000000111000 3!
b00000000000000000000000000110100 4!
1^!
#130000
0^!
#135000
b00000000000000000000000000111000 F
b00000000000000000000000000110100 I
b00000000000000000000000000111000 K
b00000000000000000000000000111100 3!
b00000000000000000000000000111000 4!
1^!
#140000
0^!
#145000
b00000000000000000000000000111100 F
b00000000000000000000000000111000 I
b00000000000000000000000000111100 K
b00000000000000000000000001000000 3!
b00000000000000000000000000111100 4!
1^!
#150000
0^!
#155000
b00000000000000000000000001000000 F
b00000000000000000000000000111100 I
b00000000000000000000000001000000 K
b00000000000000000000000001000100 3!
b00000000000000000000000001000000 4!
1^!
#160000
0^!
#165000
b00000000000000000000000001000100 F
b00000000000000000000000001000000 I
b00000000000000000000000001000100 K
b00000000000000000000000001001000 3!
b00000000000000000000000001000100 4!
1^!
#170000
0^!
#175000
b00000000000000000000000001001000 F
b00000000000000000000000001000100 I
b00000000000000000000000001001000 K
b00000000000000000000000001001100 3!
b00000000000000000000000001001000 4!
1^!
#180000
0^!
#185000
b00000000000000000000000001001100 F
b00000000000000000000000001001000 I
b00000000000000000000000001001100 K
b00000000000000000000000001010000 3!
b00000000000000000000000001001100 4!
1^!
#190000
0^!
#195000
b00000000000000000000000001010000 F
b00000000000000000000000001001100 I
b00000000000000000000000001010000 K
b00000000000000000000000001010100 3!
b00000000000000000000000001010000 4!
1^!
#200000
0^!
#205000
b00000000000000000000000001010100 F
b00000000000000000000000001010000 I
b00000000000000000000000001010100 K
b00000000000000000000000001011000 3!
b00000000000000000000000001010100 4!
1^!
#210000
0^!
#215000
b00000000000000000000000001011000 F
b00000000000000000000000001010100 I
b00000000000000000000000001011000 K
b00000000000000000000000001011100 3!
b00000000000000000000000001011000 4!
1^!
#220000
0^!
#225000
b00000000000000000000000001011100 F
b00000000000000000000000001011000 I
b00000000000000000000000001011100 K
b00000000000000000000000001100000 3!
b00000000000000000000000001011100 4!
1^!
#230000
0^!
#235000
b00000000000000000000000001100000 F
b00000000000000000000000001011100 I
b00000000000000000000000001100000 K
b00000000000000000000000001100100 3!
b00000000000000000000000001100000 4!
1^!
#240000
0^!
#245000
b00000000000000000000000001100100 F
b00000000000000000000000001100000 I
b00000000000000000000000001100100 K
b00000000000000000000000001101000 3!
b00000000000000000000000001100100 4!
1^!
#250000
0^!
#255000
b00000000000000000000000001101000 F
b00000000000000000000000001100100 I
b00000000000000000000000001101000 K
b00000000000000000000000001101100 3!
b00000000000000000000000001101000 4!
1^!
#260000
0^!
#265000
b00000000000000000000000001101100 F
b00000000000000000000000001101000 I
b00000000000000000000000001101100 K
b00000000000000000000000001110000 3!
b00000000000000000000000001101100 4!
1^!
#270000
0^!
#275000
b00000000000000000000000001110000 F
b00000000000000000000000001101100 I
b00000000000000000000000001110000 K
b00000000000000000000000001110100 3!
b00000000000000000000000001110000 4!
1^!
#280000
0^!
#285000
b00000000000000000000000001110100 F
b00000000000000000000000001110000 I
b00000000000000000000000001110100 K
b00000000000000000000000001111000 3!
b00000000000000000000000001110100 4!
1^!
#290000
0^!
#295000
b00000000000000000000000001111000 F
b00000000000000000000000001110100 I
b00000000000000000000000001111000 K
b00000000000000000000000001111100 3!
b00000000000000000000000001111000 4!
1^!
#300000
0^!
#305000
b00000000000000000000000001111100 F
b00000000000000000000000001111000 I
b00000000000000000000000001111100 K
b00000000000000000000000010000000 3!
b00000000000000000000000001111100 4!
1^!
#310000
0^!
#315000
b00000000000000000000000010000000 F
b00000000000000000000000001111100 I
b00000000000000000000000010000000 K
b00000000000000000000000010000100 3!
b00000000000000000000000010000000 4!
1^!
#320000
0^!
#325000
b00000000000000000000000010000100 F
b00000000000000000000000010000000 I
b00000000000000000000000010000100 K
b00000000000000000000000010001000 3!
b00000000000000000000000010000100 4!
1^!
#330000
0^!
#335000
b00000000000000000000000010001000 F
b00000000000000000000000010000100 I
b00000000000000000000000010001000 K
b00000000000000000000000010001100 3!
b00000000000000000000000010001000 4!
1^!
#340000
0^!
#345000
b00000000000000000000000010001100 F
b00000000000000000000000010001000 I
b00000000000000000000000010001100 K
b00000000000000000000000010010000 3!
b00000000000000000000000010001100 4!
1^!
