cpu_top_tb.vcd
$version Generated by VerilatedVcd $end
$timescale 1ps $end
 $scope module TOP $end
  $scope module tb_cpu $end
   $var wire 1 !! clk $end
   $var wire 5 "! reg_obs_sel [4:0] $end
   $var wire 32 #! reg_obs_data [31:0] $end
   $scope module uut $end
    $var wire 1 !! clk $end
    $var wire 5 "! reg_obs_sel [4:0] $end
    $var wire 32 #! reg_obs_data [31:0] $end
    $var wire 32 ) pc [31:0] $end
    $var wire 32 T pc_4 [31:0] $end
    $var wire 32 U pc_mux [31:0] $end
    $var wire 1 V pc_sel $end
    $var wire 32 W alu_out [31:0] $end
    $var wire 32 X inst [31:0] $end
    $var wire 2 Y imm_sel [1:0] $end
    $var wire 32 Z immediate_sign_ex [31:0] $end
    $var wire 5 * wb_reg_dest [4:0] $end
    $var wire 32 [ wb_data [31:0] $end
    $var wire 1 + wb_reg_wen $end
    $var wire 32 , pc_mux_ex [31:0] $end
    $var wire 1 \ reg_wen $end
    $var wire 32 ] data1 [31:0] $end
    $var wire 32 ^ data2 [31:0] $end
    $var wire 32 _ source_data [31:0] $end
    $var wire 1 ` mux_1_sel $end
    $var wire 1 a mux_2_sel $end
    $var wire 1 b mux_3_sel $end
    $var wire 4 c alu_sel [3:0] $end
    $var wire 32 d mux1_out [31:0] $end
    $var wire 32 e mux2_out [31:0] $end
    $var wire 32 - mux3_out [31:0] $end
    $var wire 32 . pc_mux_ex_four [31:0] $end
    $var wire 1 f alu_over $end
    $var wire 1 g alu_under $end
    $var wire 32 h ccr_d [31:0] $end
    $var wire 32 / ccr_q [31:0] $end
    $var wire 2 i ccr_type [1:0] $end
    $var wire 4 j ccr_op [3:0] $end
    $var wire 1 k ccr_br $end
    $var wire 32 0 wb_alu_out [31:0] $end
    $var wire 32 l dmem_data [31:0] $end
    $var wire 1 1 wb_sel_q $end
    $var wire 1 m wb_sel_d $end
    $var wire 1 n dmem_wen $end
    $scope module ADDER_1 $end
     $var wire 32 U in1 [31:0] $end
     $var wire 32 $! in2 [31:0] $end
     $var wire 32 T out [31:0] $end
    $upscope $end
    $scope module ADDER_2 $end
     $var wire 32 , in1 [31:0] $end
     $var wire 32 $! in2 [31:0] $end
     $var wire 32 . out [31:0] $end
    $upscope $end
    $scope module ALU $end
     $var wire 32 d input1 [31:0] $end
     $var wire 32 e input2 [31:0] $end
     $var wire 4 c alu_sel [3:0] $end
     $var wire 32 W out [31:0] $end
     $var wire 1 f over $end
     $var wire 1 g under $end
     $var wire 32 o a [31:0] $end
     $var wire 32 p b [31:0] $end
     $var wire 32 q sum [31:0] $end
     $var wire 32 r diff [31:0] $end
     $var wire 32 s x [31:0] $end
     $var wire 32 t y [31:0] $end
     $var wire 64 u mult_result [63:0] $end
     $var wire 32 w carry [31:0] $end
    $upscope $end
    $scope module ALU_PIPE_REG $end
     $var wire 32 - D [31:0] $end
     $var wire 1 !! clk $end
     $var wire 32 0 Q [31:0] $end
     $var wire 32 0 data [31:0] $end
    $upscope $end
    $scope module CCR $end
     $var wire 32 h D [31:0] $end
     $var wire 1 !! clk $end
     $var wire 32 / Q [31:0] $end
     $var wire 32 / data [31:0] $end
    $upscope $end
    $scope module CCR_LOGIC $end
     $var wire 1 f over $end
     $var wire 1 g under $end
     $var wire 32 W alu_in [31:0] $end
     $var wire 32 / ccr_in [31:0] $end
     $var wire 2 i type_in [1:0] $end
     $var wire 4 j op_in [3:0] $end
     $var wire 1 k br_out $end
     $var wire 32 h ccr_out [31:0] $end
    $upscope $end
    $scope module CONTROL $end
     $var wire 2 i type_in [1:0] $end
     $var wire 4 j op_in [3:0] $end
     $var wire 1 k br_in $end
     $var wire 1 V pc_sel_out $end
     $var wire 2 Y imm_sel_out [1:0] $end
     $var wire 1 \ reg_wen_out $end
     $var wire 1 ` mux_1_sel_out $end
     $var wire 1 a mux_2_sel_out $end
     $var wire 4 c alu_sel_out [3:0] $end
     $var wire 1 b mux_3_sel_out $end
     $var wire 2 i type_out [1:0] $end
     $var wire 4 j op_out [3:0] $end
     $var wire 1 n dmem_wen_out $end
     $var wire 1 m wb_sel_out $end
     $var wire 19 x output_vector [18:0] $end
    $upscope $end
    $scope module DMEM $end
     $var wire 1 !! clk $end
     $var wire 1 n write_en $end
     $var wire 32 W addr [31:0] $end
     $var wire 32 _ write_data [31:0] $end
     $var wire 32 l read_data [31:0] $end
     $var wire 32 %! LAST_VALID_ADDR [31:0] $end
     $scope module unnamedblk1 $end
      $var wire 32 # fd [31:0] $end
      $var wire 32 $ addr [31:0] $end
      $var wire 32 % word_data [31:0] $end
     $upscope $end
    $upscope $end
    $scope module IMEM $end
     $var wire 1 !! clk $end
     $var wire 1 &! write_en $end
     $var wire 32 U addr [31:0] $end
     $var wire 32 '! write_data [31:0] $end
     $var wire 32 X read_data [31:0] $end
     $var wire 32 (! LAST_VALID_ADDR [31:0] $end
     $scope module unnamedblk1 $end
      $var wire 32 & fd [31:0] $end
      $var wire 32 ' addr [31:0] $end
      $var wire 32 ( word_data [31:0] $end
     $upscope $end
    $upscope $end
    $scope module IMM_GEN $end
     $var wire 5 y a [4:0] $end
     $var wire 5 z b [4:0] $end
     $var wire 11 { c [10:0] $end
     $var wire 2 Y imm_sel_in [1:0] $end
     $var wire 32 Z out [31:0] $end
     $var wire 16 | cb [15:0] $end
     $var wire 21 } cba [20:0] $end
    $upscope $end
    $scope module INST_PIPE_REG $end
     $var wire 5 ~ D [4:0] $end
     $var wire 1 !! clk $end
     $var wire 5 * Q [4:0] $end
     $var wire 5 * data [4:0] $end
    $upscope $end
    $scope module MUX_1 $end
     $var wire 32 ] in0 [31:0] $end
     $var wire 32 , in1 [31:0] $end
     $var wire 1 ` sel $end
     $var wire 32 d out [31:0] $end
    $upscope $end
    $scope module MUX_2 $end
     $var wire 32 Z in0 [31:0] $end
     $var wire 32 ^ in1 [31:0] $end
     $var wire 1 a sel $end
     $var wire 32 e out [31:0] $end
    $upscope $end
    $scope module MUX_3 $end
     $var wire 32 W in0 [31:0] $end
     $var wire 32 . in1 [31:0] $end
     $var wire 1 b sel $end
     $var wire 32 - out [31:0] $end
    $upscope $end
    $scope module MUX_PC $end
     $var wire 32 ) in0 [31:0] $end
     $var wire 32 W in1 [31:0] $end
     $var wire 1 V sel $end
     $var wire 32 U out [31:0] $end
    $upscope $end
    $scope module MUX_WB $end
     $var wire 32 l in0 [31:0] $end
     $var wire 32 0 in1 [31:0] $end
     $var wire 1 1 sel $end
     $var wire 32 [ out [31:0] $end
    $upscope $end
    $scope module PC $end
     $var wire 32 T D [31:0] $end
     $var wire 1 !! clk $end
     $var wire 32 ) Q [31:0] $end
     $var wire 32 ) data [31:0] $end
    $upscope $end
    $scope module PC_PIPE_REG $end
     $var wire 32 U D [31:0] $end
     $var wire 1 !! clk $end
     $var wire 32 , Q [31:0] $end
     $var wire 32 , data [31:0] $end
    $upscope $end
    $scope module REGFILE $end
     $var wire 5 y reg1_in [4:0] $end
     $var wire 5 z reg2_in [4:0] $end
     $var wire 5 ~ reg_source_in [4:0] $end
     $var wire 5 * reg_dest_in [4:0] $end
     $var wire 32 [ data_in [31:0] $end
     $var wire 1 + reg_wen_in $end
     $var wire 32 #! reg_obs_data_out [31:0] $end
     $var wire 5 "! reg_obs_sel_in [4:0] $end
     $var wire 32 ] data1_out [31:0] $end
     $var wire 32 ^ data2_out [31:0] $end
     $var wire 32 _ source_data_out [31:0] $end
     $var wire 32 2 R1_out [31:0] $end
     $var wire 32 3 R2_out [31:0] $end
     $var wire 32 4 R3_out [31:0] $end
     $var wire 32 5 R4_out [31:0] $end
     $var wire 32 6 R5_out [31:0] $end
     $var wire 32 7 R6_out [31:0] $end
     $var wire 32 8 R7_out [31:0] $end
     $var wire 32 9 R8_out [31:0] $end
     $var wire 32 : R9_out [31:0] $end
     $var wire 32 ; R10_out [31:0] $end
     $var wire 32 < R11_out [31:0] $end
     $var wire 32 = R12_out [31:0] $end
     $var wire 32 > R13_out [31:0] $end
     $var wire 32 ? R14_out [31:0] $end
     $var wire 32 @ R15_out [31:0] $end
     $var wire 32 A R16_out [31:0] $end
     $var wire 32 B SP_out [31:0] $end
     $var wire 1 C R1_EN $end
     $var wire 1 D R2_EN $end
     $var wire 1 E R3_EN $end
     $var wire 1 F R4_EN $end
     $var wire 1 G R5_EN $end
     $var wire 1 H R6_EN $end
     $var wire 1 I R7_EN $end
     $var wire 1 J R8_EN $end
     $var wire 1 K R9_EN $end
     $var wire 1 L R10_EN $end
     $var wire 1 M R11_EN $end
     $var wire 1 N R12_EN $end
     $var wire 1 O R13_EN $end
     $var wire 1 P R14_EN $end
     $var wire 1 Q R15_EN $end
     $var wire 1 R R16_EN $end
     $var wire 1 S SP_EN $end
     $scope module R1 $end
      $var wire 32 [ D [31:0] $end
      $var wire 1 C en $end
      $var wire 32 2 Q [31:0] $end
     $upscope $end
     $scope module R10 $end
      $var wire 32 [ D [31:0] $end
      $var wire 1 L en $end
      $var wire 32 ; Q [31:0] $end
     $upscope $end
     $scope module R11 $end
      $var wire 32 [ D [31:0] $end
      $var wire 1 M en $end
      $var wire 32 < Q [31:0] $end
     $upscope $end
     $scope module R12 $end
      $var wire 32 [ D [31:0] $end
      $var wire 1 N en $end
      $var wire 32 = Q [31:0] $end
     $upscope $end
     $scope module R13 $end
      $var wire 32 [ D [31:0] $end
      $var wire 1 O en $end
      $var wire 32 > Q [31:0] $end
     $upscope $end
     $scope module R14 $end
      $var wire 32 [ D [31:0] $end
      $var wire 1 P en $end
      $var wire 32 ? Q [31:0] $end
     $upscope $end
     $scope module R15 $end
      $var wire 32 [ D [31:0] $end
      $var wire 1 Q en $end
      $var wire 32 @ Q [31:0] $end
     $upscope $end
     $scope module R16 $end
      $var wire 32 [ D [31:0] $end
      $var wire 1 R en $end
      $var wire 32 A Q [31:0] $end
     $upscope $end
     $scope module R2 $end
      $var wire 32 [ D [31:0] $end
      $var wire 1 D en $end
      $var wire 32 3 Q [31:0] $end
     $upscope $end
     $scope module R3 $end
      $var wire 32 [ D [31:0] $end
      $var wire 1 E en $end
      $var wire 32 4 Q [31:0] $end
     $upscope $end
     $scope module R4 $end
      $var wire 32 [ D [31:0] $end
      $var wire 1 F en $end
      $var wire 32 5 Q [31:0] $end
     $upscope $end
     $scope module R5 $end
      $var wire 32 [ D [31:0] $end
      $var wire 1 G en $end
      $var wire 32 6 Q [31:0] $end
     $upscope $end
     $scope module R6 $end
      $var wire 32 [ D [31:0] $end
      $var wire 1 H en $end
      $var wire 32 7 Q [31:0] $end
     $upscope $end
     $scope module R7 $end
      $var wire 32 [ D [31:0] $end
      $var wire 1 I en $end
      $var wire 32 8 Q [31:0] $end
     $upscope $end
     $scope module R8 $end
      $var wire 32 [ D [31:0] $end
      $var wire 1 J en $end
      $var wire 32 9 Q [31:0] $end
     $upscope $end
     $scope module R9 $end
      $var wire 32 [ D [31:0] $end
      $var wire 1 K en $end
      $var wire 32 : Q [31:0] $end
     $upscope $end
     $scope module SP $end
      $var wire 32 [ D [31:0] $end
      $var wire 1 S en $end
      $var wire 32 B Q [31:0] $end
     $upscope $end
    $upscope $end
    $scope module WB_PIPE_REG $end
     $var wire 1 m D $end
     $var wire 1 !! clk $end
     $var wire 1 1 Q $end
     $var wire 1 1 data $end
    $upscope $end
    $scope module WEN_PIPE_REG $end
     $var wire 1 \ D $end
     $var wire 1 !! clk $end
     $var wire 1 + Q $end
     $var wire 1 + data $end
    $upscope $end
   $upscope $end
  $upscope $end
 $upscope $end
$enddefinitions $end


#0
b00000000000000000000000000000000 #
b00000000000000000000000000000000 $
b00000000000000000000000000000000 %
b00000000000000000000000000000000 &
b00000000000000000000000000000000 '
b00000000000000000000000000000000 (
b00000000000000000000000000000000 )
b00000 *
0+
b00000000000000000000000000000000 ,
b00000000000000000000000000000000 -
b00000000000000000000000000000100 .
b00000000000000000000000000000000 /
b00000000000000000000000000000000 0
01
b00000000000000000000000000000000 2
b00000000000000000000000000000000 3
b00000000000000000000000000000000 4
b00000000000000000000000000000000 5
b00000000000000000000000000000000 6
b00000000000000000000000000000000 7
b00000000000000000000000000000000 8
b00000000000000000000000000000000 9
b00000000000000000000000000000000 :
b00000000000000000000000000000000 ;
b00000000000000000000000000000000 <
b00000000000000000000000000000000 =
b00000000000000000000000000000000 >
b00000000000000000000000000000000 ?
b00000000000000000000000000000000 @
b00000000000000000000000000000000 A
b00000000000000000000000000000000 B
0C
0D
0E
0F
0G
0H
0I
0J
0K
0L
0M
0N
0O
0P
0Q
0R
0S
b00000000000000000000000000000100 T
b00000000000000000000000000000000 U
0V
b00000000000000000000000000000000 W
b00000000000000000000000000000000 X
b00 Y
b00000000000000000000000000000000 Z
b00000000000000000000000000000000 [
1\
b00000000000000000000000000000000 ]
b00000000000000000000000000000000 ^
b00000000000000000000000000000000 _
0`
1a
0b
b0000 c
b00000000000000000000000000000000 d
b00000000000000000000000000000000 e
0f
0g
b00000000000000000000000000000001 h
b00 i
b0000 j
0k
b00000000000000000000000000000000 l
1m
0n
b00000000000000000000000000000000 o
b00000000000000000000000000000000 p
b00000000000000000000000000000000 q
b00000000000000000000000000000000 r
b00000000000000000000000000000000 s
b00000000000000000000000000000000 t
b0000000000000000000000000000000000000000000000000000000000000000 u
b00000000000000000000000000000000 w
b0001010000000000001 x
b00000 y
b00000 z
b00000000000 {
b0000000000000000 |
b000000000000000000000 }
b00000 ~
0!!
b00000 "!
b00000000000000000000000000000000 #!
b00000000000000000000000000000100 $!
b00000000000000000000000000111100 %!
0&!
b00000000000000000000000000000000 '!
b00000000000000000000000011111100 (!
#5000
b00000000000000000000000000000100 )
1+
b00000000000000000000001001110101 -
b00000000000000000000000000000001 /
11
b00000000000000000000000000001000 T
b00000000000000000000000000000100 U
b00000000000000000000001001110101 W
b00000010011101010000000001010000 X
b10 Y
b00000000000000000000001001110101 Z
b11011110101011011011111011101111 ^
0a
b00000000000000000000001001110101 e
b00000000000000000000000000000000 h
b01 i
b11111111111111111111111111111111 l
b00000000000000000000001001110101 p
b00000000000000000000001001110101 q
b00000000000000000000001001110101 s
b0101000000001000001 x
b10101 z
b00000010011 {
b0000001001110101 |
b000000100111010100000 }
b00001 ~
1!!
#10000
0!!
#15000
b00000000000000000000000000001000 )
b00001 *
b00000000000000000000000000000100 ,
b00000000000000000000000000000000 -
b00000000000000000000000000001000 .
b00000000000000000000000000000000 /
b00000000000000000000001001110101 0
b00000000000000000000001001110101 2
1C
b00000000000000000000000000001100 T
b00000000000000000000000000001000 U
b00000000000000000000000000000000 W
b00000000000000000000000010010000 X
b00000000000000000000000000000000 Z
b00000000000000000000001001110101 [
b00000000000000000000000000000000 ^
b00000000000000000000000000000000 e
b00000000000000000000000000000001 h
b00000000000000000000000000000000 p
b00000000000000000000000000000000 q
b00000000000000000000000000000000 s
b00000 z
b00000000000 {
b0000000000000000 |
b000000000000000000000 }
b00010 ~
1!!
#20000
0!!
#25000
b00000000000000000000000000001100 )
b00010 *
b00000000000000000000000000001000 ,
b00000000000000000000000000001100 -
b00000000000000000000000000001100 .
b00000000000000000000000000000001 /
b00000000000000000000000000000000 0
0C
1D
b00000000000000000000000000100000 T
b00000000000000000000000000011100 U
1V
b00000000000000000000000000011100 W
b00000000000111000000000000011110 X
b00000000000000000000000000011100 Z
b00000000000000000000000000000000 [
b11011110101011011011111011101111 ^
1b
b00000000000000000000000000011100 e
b00000000000000000000000000000000 h
b1110 j
b00000000000000000000000000011100 p
b00000000000000000000000000011100 q
b00000000000000000000000000011100 s
b1101000000101111001 x
b11100 z
b0000000000011100 |
b000000000001110000000 }
b00000 ~
1!!
#30000
0!!
#35000
b00000000000000000000000000100000 )
b00000 *
b00000000000000000000000000011100 ,
b00000000000000000000000000000001 -
b00000000000000000000000000100000 .
b00000000000000000000000000000000 /
b00000000000000000000000000001100 0
0D
b00000000000000000000000000100100 T
b00000000000000000000000000100000 U
0V
b00000000000000000000000000000001 W
b00000000000000010000100000000111 X
b00 Y
b00000000000000000000000000000000 Z
b00000000000000000000000000001100 [
0\
b00000000000000000000001001110101 ]
b00000000000000000000001001110101 ^
1a
0b
b0111 c
b00000000000000000000001001110101 d
b00000000000000000000001001110101 e
b00000000000000000000000000001000 h
b00 i
b0111 j
b00000000000000000000001001110101 o
b00000000000000000000001001110101 p
b00000000000000000000000000000000 q
b00000000000000000000000000000000 s
b0000010111000011101 x
b00001 y
b00001 z
b0000000000000001 |
b000000000000000100001 }
1!!
#40000
0!!
#45000
b00000000000000000000000000100100 )
0+
b00000000000000000000000000100000 ,
b00000000000000000000000000100100 -
b00000000000000000000000000100100 .
b00000000000000000000000000001000 /
b00000000000000000000000000000001 0
b00000000000000000000000000010000 T
b00000000000000000000000000001100 U
1V
b00000000000000000000000000001100 W
b11111111111111110110010001110000 X
b11 Y
b11111111111111111111111111101100 Z
b00000000000000000000000000000001 [
1\
b00000000000000000000000000000000 ]
b11011110101011011011111011101111 ^
1`
0a
1b
b0000 c
b00000000000000000000000000100000 d
b11111111111111111111111111101100 e
b00000000000000000000000000000000 h
b11 i
b0000 j
1k
b00000000000000000000000000100000 o
b11111111111111111111111111101100 p
b00000000000000000000000000001100 q
b00000000000000000000000000001100 s
b10000000000000000000000000000000 w
b1111100000111000001 x
b01100 y
b11111 z
b11111111111 {
b1111111111111111 |
b111111111111111101100 }
b10001 ~
1!!
#50000
0!!
#55000
b00000000000000000000000000010000 )
b10001 *
1+
b00000000000000000000000000001100 ,
b00000000000000000000001001110101 -
b00000000000000000000000000010000 .
b00000000000000000000000000000000 /
b00000000000000000000000000100100 0
b00000000000000000000000000100100 B
1S
b00000000000000000000000000010100 T
b00000000000000000000000000010000 U
0V
b00000000000000000000001001110101 W
b00000010011101010000000001010000 X
b10 Y
b00000000000000000000001001110101 Z
b00000000000000000000000000100100 [
b00000000000000000000001001110101 _
0`
0b
b00000000000000000000000000000000 d
b00000000000000000000001001110101 e
b01 i
0k
b00000000000000000000000000000000 o
b00000000000000000000001001110101 p
b00000000000000000000001001110101 q
b00000000000000000000001001110101 s
b00000000000000000000000000000000 w
b0101000000001000001 x
b00000 y
b10101 z
b00000010011 {
b0000001001110101 |
b000000100111010100000 }
b00001 ~
1!!
#60000
0!!
#65000
b00000000000000000000000000010100 )
b00001 *
b00000000000000000000000000010000 ,
b00000000000000000000000000000000 -
b00000000000000000000000000010100 .
b00000000000000000000001001110101 0
1C
0S
b00000000000000000000000000011000 T
b00000000000000000000000000010100 U
b00000000000000000000000000000000 W
b00000000000000000001000001100101 X
b00000000000000000000000000000000 Z
b00000000000000000000001001110101 [
0\
b00000000000000000000000000000000 ^
b00000000000000000000000000000000 e
b00000000000000000000000000000001 h
b10 i
b0101 j
0m
1n
b00000000000000000000000000000000 p
b00000000000000000000000000000000 q
b00000000000000000000000000000000 s
b0100000000010010110 x
b00010 y
b00000 z
b00000000000 {
b0000000000000000 |
b000000000000000000010 }
1!!
#70000
0!!
#75000
b00000000000000000000000000011000 )
0+
b00000000000000000000000000010100 ,
b00000000000000000000000000000100 -
b00000000000000000000000000011000 .
b00000000000000000000000000000001 /
b00000000000000000000000000000000 0
01
0C
b00000000000000000000000000011100 T
b00000000000000000000000000011000 U
b00000000000000000000000000000100 W
b00000000000001000001000010010000 X
b00000000000000000000000000000100 Z
b11111111111111111111111111111111 [
1\
b00000000000000000000000000000000 _
b00000000000000000000000000000100 e
b00000000000000000000000000000000 h
b01 i
b0000 j
1m
0n
b00000000000000000000000000000100 p
b00000000000000000000000000000100 q
b00000000000000000000000000000100 s
b0101000000001000001 x
b00100 z
b0000000000000100 |
b000000000000010000010 }
b00010 ~
1!!
#80000
0!!
#85000
b00000000000000000000000000011100 )
b00010 *
1+
b00000000000000000000000000011000 ,
b00000000000000000000000000011100 -
b00000000000000000000000000011100 .
b00000000000000000000000000000000 /
b00000000000000000000000000000100 0
11
b00000000000000000000000000000100 3
1D
b00000000000000000000000000101000 T
b00000000000000000000000000100100 U
1V
b00000000000000000000000000100100 W
b00000000000000001000100000011110 X
b00000000000000000000000000000000 Z
b00000000000000000000000000000100 [
b00000000000000000000000000100100 ]
1b
b00000000000000000000000000100100 d
b00000000000000000000000000000000 e
b1110 j
b00000000000000000000000000100100 o
b00000000000000000000000000000000 p
b00000000000000000000000000100100 q
b00000000000000000000000000100100 s
b1101000000101111001 x
b10001 y
b00000 z
b0000000000000000 |
b000000000000000010001 }
b00000 ~
1!!
#90000
0!!
#95000
b00000000000000000000000000101000 )
b00000 *
b00000000000000000000000000100100 ,
b00000000000000000000000000000001 -
b00000000000000000000000000101000 .
b00000000000000000000000000011100 0
0D
b00000000000000000000000000101100 T
b00000000000000000000000000101000 U
0V
b00000000000000000000000000000001 W
b00000000000000000000100000001000 X
b00 Y
b00000000000000000000000000011100 [
0\
b00000000000000000000001001110101 ]
1a
0b
b1000 c
b00000000000000000000001001110101 d
b00000000000000000000000000010000 h
b00 i
b1000 j
b00000000000000000000001001110101 o
b00000000000000000000000000000000 q
b00000000000000000000000000000000 s
b0000011000000100001 x
b00001 y
b000000000000000000001 }
1!!
#100000
0!!
#105000
b00000000000000000000000000101100 )
0+
b00000000000000000000000000101000 ,
b00000000000000000000000000101100 -
b00000000000000000000000000101100 .
b00000000000000000000000000010000 /
b00000000000000000000000000000001 0
b00000000000000000000000000010000 T
b00000000000000000000000000001100 U
1V
b00000000000000000000000000001100 W
b11111111111111110010010001110001 X
b11 Y
b11111111111111111111111111100100 Z
b00000000000000000000000000000001 [
1\
b00000000000000000000000000000000 ]
b11011110101011011011111011101111 ^
b00000000000000000000000000100100 _
1`
0a
1b
b0000 c
b00000000000000000000000000101000 d
b11111111111111111111111111100100 e
b00000000000000000000000000000000 h
b11 i
b0001 j
1k
b00000000000000000000000000101000 o
b11111111111111111111111111100100 p
b00000000000000000000000000001100 q
b00000000000000000000000000001100 s
b10000000000000000000000000000000 w
b1111100000111000101 x
b00100 y
b11111 z
b11111111111 {
b1111111111111111 |
b111111111111111100100 }
b10001 ~
1!!
#110000
0!!
#115000
b00000000000000000000000000010000 )
b10001 *
1+
b00000000000000000000000000001100 ,
b00000000000000000000001001110101 -
b00000000000000000000000000010000 .
b00000000000000000000000000000000 /
b00000000000000000000000000101100 0
b00000000000000000000000000101100 B
1S
b00000000000000000000000000010100 T
b00000000000000000000000000010000 U
0V
b00000000000000000000001001110101 W
b00000010011101010000000001010000 X
b10 Y
b00000000000000000000001001110101 Z
b00000000000000000000000000101100 [
b00000000000000000000001001110101 _
0`
0b
b00000000000000000000000000000000 d
b00000000000000000000001001110101 e
b01 i
b0000 j
0k
b00000000000000000000000000000000 o
b00000000000000000000001001110101 p
b00000000000000000000001001110101 q
b00000000000000000000001001110101 s
b00000000000000000000000000000000 w
b0101000000001000001 x
b00000 y
b10101 z
b00000010011 {
b0000001001110101 |
b000000100111010100000 }
b00001 ~
1!!
#120000
0!!
#125000
b00000000000000000000000000010100 )
b00001 *
b00000000000000000000000000010000 ,
b00000000000000000000000000000100 -
b00000000000000000000000000010100 .
b00000000000000000000001001110101 0
1C
0S
b00000000000000000000000000011000 T
b00000000000000000000000000010100 U
b00000000000000000000000000000100 W
b00000000000000000001000001100101 X
b00000000000000000000000000000000 Z
b00000000000000000000001001110101 [
0\
b00000000000000000000000000000100 ]
b00000000000000000000000000000000 ^
b00000000000000000000000000000100 d
b00000000000000000000000000000000 e
b10 i
b0101 j
0m
1n
b00000000000000000000000000000100 o
b00000000000000000000000000000000 p
b00000000000000000000000000000100 q
b00000000000000000000000000000100 s
b0100000000010010110 x
b00010 y
b00000 z
b00000000000 {
b0000000000000000 |
b000000000000000000010 }
1!!
#130000
0!!
#135000
b00000000000000000000000000011000 )
0+
b00000000000000000000000000010100 ,
b00000000000000000000000000001000 -
b00000000000000000000000000011000 .
b00000000000000000000000000000100 0
01
0C
b00000000000000000000000000011100 T
b00000000000000000000000000011000 U
b00000000000000000000000000001000 W
b00000000000001000001000010010000 X
b00000000000000000000000000000100 Z
b11111111111111111111111111111111 [
1\
b00000000000000000000000000000100 _
b00000000000000000000000000000100 e
b01 i
b0000 j
1m
0n
b00000000000000000000000000000100 p
b00000000000000000000000000001000 q
b00000000000000000000000000001000 s
b0101000000001000001 x
b00100 z
b0000000000000100 |
b000000000000010000010 }
b00010 ~
1!!
#140000
0!!
#145000
b00000000000000000000000000011100 )
b00010 *
1+
b00000000000000000000000000011000 ,
b00000000000000000000000000011100 -
b00000000000000000000000000011100 .
b00000000000000000000000000001000 0
11
b00000000000000000000000000001000 3
1D
b00000000000000000000000000110000 T
b00000000000000000000000000101100 U
1V
b00000000000000000000000000101100 W
b00000000000000001000100000011110 X
b00000000000000000000000000000000 Z
b00000000000000000000000000001000 [
b00000000000000000000000000101100 ]
b00000000000000000000000000000000 _
1b
b00000000000000000000000000101100 d
b00000000000000000000000000000000 e
b1110 j
b00000000000000000000000000101100 o
b00000000000000000000000000000000 p
b00000000000000000000000000101100 q
b00000000000000000000000000101100 s
b1101000000101111001 x
b10001 y
b00000 z
b0000000000000000 |
b000000000000000010001 }
b00000 ~
1!!
#150000
0!!
#155000
b00000000000000000000000000110000 )
b00000 *
b00000000000000000000000000101100 ,
b00000000000000000000000000000001 -
b00000000000000000000000000110000 .
b00000000000000000000000000011100 0
0D
b00000000000000000000000000110100 T
b00000000000000000000000000110000 U
0V
b00000000000000000000000000000001 W
b00000000000000010000000000001001 X
b00 Y
b00000000000000000000000000011100 [
0\
b00000000000000000000000000000000 ]
b00000000000000000000001001110101 ^
1a
0b
b1001 c
b00000000000000000000000000000000 d
b00000000000000000000001001110101 e
b00000000000000000000000000100000 h
b00 i
b1001 j
b00000000000000000000000000000000 o
b00000000000000000000001001110101 p
b00000000000000000000000000000000 q
b00000000000000000000000000000000 s
b0000011001000100101 x
b00000 y
b00001 z
b0000000000000001 |
b000000000000000100000 }
1!!
#160000
0!!
#165000
b00000000000000000000000000110100 )
0+
b00000000000000000000000000110000 ,
b00000000000000000000000000110100 -
b00000000000000000000000000110100 .
b00000000000000000000000000100000 /
b00000000000000000000000000000001 0
b00000000000000000000000000010000 T
b00000000000000000000000000001100 U
1V
b00000000000000000000000000001100 W
b11111111111111101110010001110010 X
b11 Y
b11111111111111111111111111011100 Z
b00000000000000000000000000000001 [
1\
b11011110101011011011111011101111 ]
b11011110101011011011111011101111 ^
b00000000000000000000000000101100 _
1`
0a
1b
b0000 c
b00000000000000000000000000110000 d
b11111111111111111111111111011100 e
b00000000000000000000000000000000 h
b11 i
b0010 j
1k
b00000000000000000000000000110000 o
b11111111111111111111111111011100 p
b00000000000000000000000000001100 q
b00000000000000000000000000001100 s
b10000000000000000000000000000000 w
b1111100000111001001 x
b11100 y
b11110 z
b11111111111 {
b1111111111111110 |
b111111111111111011100 }
b10001 ~
1!!
#170000
0!!
#175000
b00000000000000000000000000010000 )
b10001 *
1+
b00000000000000000000000000001100 ,
b00000000000000000000001001110101 -
b00000000000000000000000000010000 .
b00000000000000000000000000000000 /
b00000000000000000000000000110100 0
b00000000000000000000000000110100 B
1S
b00000000000000000000000000010100 T
b00000000000000000000000000010000 U
0V
b00000000000000000000001001110101 W
b00000010011101010000000001010000 X
b10 Y
b00000000000000000000001001110101 Z
b00000000000000000000000000110100 [
b00000000000000000000000000000000 ]
b00000000000000000000001001110101 _
0`
0b
b00000000000000000000000000000000 d
b00000000000000000000001001110101 e
b01 i
b0000 j
0k
b00000000000000000000000000000000 o
b00000000000000000000001001110101 p
b00000000000000000000001001110101 q
b00000000000000000000001001110101 s
b00000000000000000000000000000000 w
b0101000000001000001 x
b00000 y
b10101 z
b00000010011 {
b0000001001110101 |
b000000100111010100000 }
b00001 ~
1!!
#180000
0!!
#185000
b00000000000000000000000000010100 )
b00001 *
b00000000000000000000000000010000 ,
b00000000000000000000000000001000 -
b00000000000000000000000000010100 .
b00000000000000000000001001110101 0
1C
0S
b00000000000000000000000000011000 T
b00000000000000000000000000010100 U
b00000000000000000000000000001000 W
b00000000000000000001000001100101 X
b00000000000000000000000000000000 Z
b00000000000000000000001001110101 [
0\
b00000000000000000000000000001000 ]
b00000000000000000000000000000000 ^
b00000000000000000000000000001000 d
b00000000000000000000000000000000 e
b10 i
b0101 j
0m
1n
b00000000000000000000000000001000 o
b00000000000000000000000000000000 p
b00000000000000000000000000001000 q
b00000000000000000000000000001000 s
b0100000000010010110 x
b00010 y
b00000 z
b00000000000 {
b0000000000000000 |
b000000000000000000010 }
1!!
#190000
0!!
#195000
b00000000000000000000000000011000 )
0+
b00000000000000000000000000010100 ,
b00000000000000000000000000001100 -
b00000000000000000000000000011000 .
b00000000000000000000000000001000 0
01
0C
b00000000000000000000000000011100 T
b00000000000000000000000000011000 U
b00000000000000000000000000001100 W
b00000000000001000001000010010000 X
b00000000000000000000000000000100 Z
b11111111111111111111111111111111 [
1\
b00000000000000000000000000001000 _
b00000000000000000000000000000100 e
b01 i
b0000 j
1m
0n
b00000000000000000000000000000100 p
b00000000000000000000000000001100 q
b00000000000000000000000000001100 s
b0101000000001000001 x
b00100 z
b0000000000000100 |
b000000000000010000010 }
b00010 ~
1!!
#200000
0!!
